<?xml version="1.0" encoding="UTF-8"?>
<gpx version="1.1" creator="Endomondo.com" xsi:schemaLocation="http://www.topografix.com/GPX/1/1 http://www.topografix.com/GPX/1/1/gpx.xsd http://www.garmin.com/xmlschemas/GpxExtensions/v3 http://www.garmin.com/xmlschemas/GpxExtensionsv3.xsd http://www.garmin.com/xmlschemas/TrackPointExtension/v1 http://www.garmin.com/xmlschemas/TrackPointExtensionv1.xsd" xmlns="http://www.topografix.com/GPX/1/1" xmlns:gpxtpx="http://www.garmin.com/xmlschemas/TrackPointExtension/v1" xmlns:gpxx="http://www.garmin.com/xmlschemas/GpxExtensions/v3" xmlns:xsi="http://www.w3.org/2001/XMLSchema-instance">
  <metadata>
    <author>
      <name>Endomondo User</name>
    </author>
    <link href="http://www.endomondo.com">
      <text>Endomondo</text>
    </link>
    <time>2016-06-26T19:49:31Z</time>
  </metadata>
  <trk>
    <name>VLTAVA RUN 2016 3.beh</name>
    <src>http://www.endomondo.com/</src>
    <link href="https://www.endomondo.com/workouts/726806008/13647877">
      <text>VLTAVA RUN 2016 3.beh</text>
    </link>
    <type>RUNNING</type>
    <trkseg>
      <trkpt lat="49.728834" lon="14.349461">
        <time>2016-05-15T07:48:55Z</time>
      </trkpt>
      <trkpt lat="49.728834" lon="14.349461">
        <ele>343.296</ele>
        <time>2016-05-15T07:48:57Z</time>
      </trkpt>
      <trkpt lat="49.729103" lon="14.34931">
        <ele>348.773</ele>
        <time>2016-05-15T07:49:20Z</time>
      </trkpt>
      <trkpt lat="49.729239" lon="14.348967">
        <ele>346.209</ele>
        <time>2016-05-15T07:49:26Z</time>
      </trkpt>
      <trkpt lat="49.729308" lon="14.348788">
        <ele>346.271</ele>
        <time>2016-05-15T07:49:29Z</time>
      </trkpt>
      <trkpt lat="49.729371" lon="14.348629">
        <ele>346.32</ele>
        <time>2016-05-15T07:49:32Z</time>
      </trkpt>
      <trkpt lat="49.729463" lon="14.348424">
        <ele>346.67</ele>
        <time>2016-05-15T07:49:36Z</time>
      </trkpt>
      <trkpt lat="49.729548" lon="14.348193">
        <ele>346.2</ele>
        <time>2016-05-15T07:49:40Z</time>
      </trkpt>
      <trkpt lat="49.729673" lon="14.34795">
        <ele>344.81</ele>
        <time>2016-05-15T07:49:45Z</time>
      </trkpt>
      <trkpt lat="49.729826" lon="14.347644">
        <ele>345.317</ele>
        <time>2016-05-15T07:49:51Z</time>
      </trkpt>
      <trkpt lat="49.729908" lon="14.347341">
        <ele>343.96</ele>
        <time>2016-05-15T07:49:57Z</time>
      </trkpt>
      <trkpt lat="49.729912" lon="14.34685">
        <ele>340.093</ele>
        <time>2016-05-15T07:50:05Z</time>
      </trkpt>
      <trkpt lat="49.729873" lon="14.34646">
        <ele>338.879</ele>
        <time>2016-05-15T07:50:12Z</time>
      </trkpt>
      <trkpt lat="49.729868" lon="14.346001">
        <ele>335.944</ele>
        <time>2016-05-15T07:50:19Z</time>
      </trkpt>
      <trkpt lat="49.729944" lon="14.345691">
        <ele>335.133</ele>
        <time>2016-05-15T07:50:25Z</time>
      </trkpt>
      <trkpt lat="49.730068" lon="14.34538">
        <ele>334.343</ele>
        <time>2016-05-15T07:50:32Z</time>
      </trkpt>
      <trkpt lat="49.730143" lon="14.345149">
        <ele>333.763</ele>
        <time>2016-05-15T07:50:37Z</time>
      </trkpt>
      <trkpt lat="49.730277" lon="14.344841">
        <ele>333.776</ele>
        <time>2016-05-15T07:50:44Z</time>
      </trkpt>
      <trkpt lat="49.730416" lon="14.344672">
        <ele>334.125</ele>
        <time>2016-05-15T07:50:49Z</time>
      </trkpt>
      <trkpt lat="49.730599" lon="14.344535">
        <ele>334.611</ele>
        <time>2016-05-15T07:50:56Z</time>
      </trkpt>
      <trkpt lat="49.730769" lon="14.344442">
        <ele>335.029</ele>
        <time>2016-05-15T07:51:02Z</time>
      </trkpt>
      <trkpt lat="49.730887" lon="14.344344">
        <ele>335.283</ele>
        <time>2016-05-15T07:51:06Z</time>
      </trkpt>
      <trkpt lat="49.73107" lon="14.344183">
        <ele>335.879</ele>
        <time>2016-05-15T07:51:12Z</time>
      </trkpt>
      <trkpt lat="49.731236" lon="14.344035">
        <ele>336.607</ele>
        <time>2016-05-15T07:51:18Z</time>
      </trkpt>
      <trkpt lat="49.731398" lon="14.34384">
        <ele>337.549</ele>
        <time>2016-05-15T07:51:26Z</time>
      </trkpt>
      <trkpt lat="49.731534" lon="14.343522">
        <ele>336.746</ele>
        <time>2016-05-15T07:51:35Z</time>
      </trkpt>
      <trkpt lat="49.731561" lon="14.343101">
        <ele>335.986</ele>
        <time>2016-05-15T07:51:45Z</time>
      </trkpt>
      <trkpt lat="49.731458" lon="14.342803">
        <ele>338.322</ele>
        <time>2016-05-15T07:51:53Z</time>
      </trkpt>
      <trkpt lat="49.731348" lon="14.342558">
        <ele>340.559</ele>
        <time>2016-05-15T07:52:01Z</time>
      </trkpt>
      <trkpt lat="49.731232" lon="14.342203">
        <ele>341.353</ele>
        <time>2016-05-15T07:52:10Z</time>
      </trkpt>
      <trkpt lat="49.73127" lon="14.341695">
        <ele>341.728</ele>
        <time>2016-05-15T07:52:19Z</time>
      </trkpt>
      <trkpt lat="49.731303" lon="14.341443">
        <ele>341.324</ele>
        <time>2016-05-15T07:52:26Z</time>
      </trkpt>
      <trkpt lat="49.731291" lon="14.341158">
        <ele>340.824</ele>
        <time>2016-05-15T07:52:33Z</time>
      </trkpt>
      <trkpt lat="49.731323" lon="14.340877">
        <ele>340.729</ele>
        <time>2016-05-15T07:52:41Z</time>
      </trkpt>
      <trkpt lat="49.731339" lon="14.340568">
        <ele>341.581</ele>
        <time>2016-05-15T07:52:49Z</time>
      </trkpt>
      <trkpt lat="49.731315" lon="14.340314">
        <ele>342.631</ele>
        <time>2016-05-15T07:52:56Z</time>
      </trkpt>
      <trkpt lat="49.731373" lon="14.339915">
        <ele>344.341</ele>
        <time>2016-05-15T07:53:06Z</time>
      </trkpt>
      <trkpt lat="49.731498" lon="14.339485">
        <ele>346.116</ele>
        <time>2016-05-15T07:53:16Z</time>
      </trkpt>
      <trkpt lat="49.731655" lon="14.339286">
        <ele>347.275</ele>
        <time>2016-05-15T07:53:23Z</time>
      </trkpt>
      <trkpt lat="49.731819" lon="14.339182">
        <ele>348.157</ele>
        <time>2016-05-15T07:53:29Z</time>
      </trkpt>
      <trkpt lat="49.731971" lon="14.339099">
        <ele>349.983</ele>
        <time>2016-05-15T07:53:38Z</time>
      </trkpt>
      <trkpt lat="49.732148" lon="14.338998">
        <ele>351.277</ele>
        <time>2016-05-15T07:53:44Z</time>
      </trkpt>
      <trkpt lat="49.73232" lon="14.338867">
        <ele>352.528</ele>
        <time>2016-05-15T07:53:51Z</time>
      </trkpt>
      <trkpt lat="49.732565" lon="14.338669">
        <ele>354.299</ele>
        <time>2016-05-15T07:54:02Z</time>
      </trkpt>
      <trkpt lat="49.73274" lon="14.338483">
        <ele>354.876</ele>
        <time>2016-05-15T07:54:11Z</time>
      </trkpt>
      <trkpt lat="49.732902" lon="14.338228">
        <ele>356.458</ele>
        <time>2016-05-15T07:54:21Z</time>
      </trkpt>
      <trkpt lat="49.732967" lon="14.33802">
        <ele>357.113</ele>
        <time>2016-05-15T07:54:27Z</time>
      </trkpt>
      <trkpt lat="49.73308" lon="14.337649">
        <ele>358.507</ele>
        <time>2016-05-15T07:54:36Z</time>
      </trkpt>
      <trkpt lat="49.733198" lon="14.337375">
        <ele>358.96</ele>
        <time>2016-05-15T07:54:44Z</time>
      </trkpt>
      <trkpt lat="49.733322" lon="14.337154">
        <ele>359.918</ele>
        <time>2016-05-15T07:54:51Z</time>
      </trkpt>
      <trkpt lat="49.733468" lon="14.337018">
        <ele>360.943</ele>
        <time>2016-05-15T07:54:59Z</time>
      </trkpt>
      <trkpt lat="49.733585" lon="14.336808">
        <ele>361.855</ele>
        <time>2016-05-15T07:55:05Z</time>
      </trkpt>
      <trkpt lat="49.733643" lon="14.336588">
        <ele>362.561</ele>
        <time>2016-05-15T07:55:12Z</time>
      </trkpt>
      <trkpt lat="49.733837" lon="14.336316">
        <ele>364.564</ele>
        <time>2016-05-15T07:55:23Z</time>
      </trkpt>
      <trkpt lat="49.733958" lon="14.336153">
        <ele>365.517</ele>
        <time>2016-05-15T07:55:29Z</time>
      </trkpt>
      <trkpt lat="49.734091" lon="14.336008">
        <ele>366.657</ele>
        <time>2016-05-15T07:55:36Z</time>
      </trkpt>
      <trkpt lat="49.734245" lon="14.335831">
        <ele>368.045</ele>
        <time>2016-05-15T07:55:44Z</time>
      </trkpt>
      <trkpt lat="49.734214" lon="14.335926">
        <ele>371.025</ele>
        <time>2016-05-15T07:55:55Z</time>
      </trkpt>
      <trkpt lat="49.734413" lon="14.335755">
        <ele>372.315</ele>
        <time>2016-05-15T07:56:04Z</time>
      </trkpt>
      <trkpt lat="49.734443" lon="14.335801">
        <ele>373.096</ele>
        <time>2016-05-15T07:56:12Z</time>
      </trkpt>
      <trkpt lat="49.734635" lon="14.335743">
        <ele>374.599</ele>
        <time>2016-05-15T07:56:27Z</time>
      </trkpt>
      <trkpt lat="49.734812" lon="14.335684">
        <ele>375.499</ele>
        <time>2016-05-15T07:56:34Z</time>
      </trkpt>
      <trkpt lat="49.735045" lon="14.335508">
        <ele>376.807</ele>
        <time>2016-05-15T07:56:42Z</time>
      </trkpt>
      <trkpt lat="49.735218" lon="14.335365">
        <ele>377.574</ele>
        <time>2016-05-15T07:56:48Z</time>
      </trkpt>
      <trkpt lat="49.73535" lon="14.335214">
        <ele>378.06</ele>
        <time>2016-05-15T07:56:54Z</time>
      </trkpt>
      <trkpt lat="49.735516" lon="14.335033">
        <ele>378.224</ele>
        <time>2016-05-15T07:57:01Z</time>
      </trkpt>
      <trkpt lat="49.735728" lon="14.33483">
        <ele>377.44</ele>
        <time>2016-05-15T07:57:11Z</time>
      </trkpt>
      <trkpt lat="49.735901" lon="14.334673">
        <ele>377.562</ele>
        <time>2016-05-15T07:57:18Z</time>
      </trkpt>
      <trkpt lat="49.736045" lon="14.334492">
        <ele>378.294</ele>
        <time>2016-05-15T07:57:26Z</time>
      </trkpt>
      <trkpt lat="49.736181" lon="14.334401">
        <ele>379.244</ele>
        <time>2016-05-15T07:57:34Z</time>
      </trkpt>
      <trkpt lat="49.736386" lon="14.334357">
        <ele>380.442</ele>
        <time>2016-05-15T07:57:44Z</time>
      </trkpt>
      <trkpt lat="49.736605" lon="14.334387">
        <ele>382.15</ele>
        <time>2016-05-15T07:57:52Z</time>
      </trkpt>
      <trkpt lat="49.736763" lon="14.334538">
        <ele>384.097</ele>
        <time>2016-05-15T07:57:59Z</time>
      </trkpt>
      <trkpt lat="49.736942" lon="14.334745">
        <ele>386.46</ele>
        <time>2016-05-15T07:58:07Z</time>
      </trkpt>
      <trkpt lat="49.737113" lon="14.33495">
        <ele>387.724</ele>
        <time>2016-05-15T07:58:13Z</time>
      </trkpt>
      <trkpt lat="49.737296" lon="14.335127">
        <ele>389.219</ele>
        <time>2016-05-15T07:58:20Z</time>
      </trkpt>
      <trkpt lat="49.737452" lon="14.335327">
        <ele>390.553</ele>
        <time>2016-05-15T07:58:27Z</time>
      </trkpt>
      <trkpt lat="49.737596" lon="14.33553">
        <ele>390.296</ele>
        <time>2016-05-15T07:58:35Z</time>
      </trkpt>
      <trkpt lat="49.737778" lon="14.335715">
        <ele>390.695</ele>
        <time>2016-05-15T07:58:44Z</time>
      </trkpt>
      <trkpt lat="49.738019" lon="14.335901">
        <ele>391.769</ele>
        <time>2016-05-15T07:58:55Z</time>
      </trkpt>
      <trkpt lat="49.738238" lon="14.33601">
        <ele>392.874</ele>
        <time>2016-05-15T07:59:06Z</time>
      </trkpt>
      <trkpt lat="49.738381" lon="14.336064">
        <ele>393.873</ele>
        <time>2016-05-15T07:59:12Z</time>
      </trkpt>
      <trkpt lat="49.738615" lon="14.336235">
        <ele>396.344</ele>
        <time>2016-05-15T07:59:22Z</time>
      </trkpt>
      <trkpt lat="49.738732" lon="14.336294">
        <ele>397.494</ele>
        <time>2016-05-15T07:59:27Z</time>
      </trkpt>
      <trkpt lat="49.738911" lon="14.336319">
        <ele>399.674</ele>
        <time>2016-05-15T07:59:35Z</time>
      </trkpt>
      <trkpt lat="49.739154" lon="14.336324">
        <ele>400.558</ele>
        <time>2016-05-15T07:59:43Z</time>
      </trkpt>
      <trkpt lat="49.739317" lon="14.336316">
        <ele>401.3</ele>
        <time>2016-05-15T07:59:50Z</time>
      </trkpt>
      <trkpt lat="49.739498" lon="14.33625">
        <ele>403.093</ele>
        <time>2016-05-15T07:59:59Z</time>
      </trkpt>
      <trkpt lat="49.739668" lon="14.336188">
        <ele>404.689</ele>
        <time>2016-05-15T08:00:06Z</time>
      </trkpt>
      <trkpt lat="49.73989" lon="14.336064">
        <ele>405.196</ele>
        <time>2016-05-15T08:00:15Z</time>
      </trkpt>
      <trkpt lat="49.740039" lon="14.335926">
        <ele>405.278</ele>
        <time>2016-05-15T08:00:23Z</time>
      </trkpt>
      <trkpt lat="49.740201" lon="14.335655">
        <ele>407.506</ele>
        <time>2016-05-15T08:00:33Z</time>
      </trkpt>
      <trkpt lat="49.740344" lon="14.335485">
        <ele>409.074</ele>
        <time>2016-05-15T08:00:40Z</time>
      </trkpt>
      <trkpt lat="49.740554" lon="14.335322">
        <ele>410.832</ele>
        <time>2016-05-15T08:00:49Z</time>
      </trkpt>
      <trkpt lat="49.740761" lon="14.335161">
        <ele>412.162</ele>
        <time>2016-05-15T08:00:58Z</time>
      </trkpt>
      <trkpt lat="49.741072" lon="14.335259">
        <ele>412.541</ele>
        <time>2016-05-15T08:01:11Z</time>
      </trkpt>
      <trkpt lat="49.741305" lon="14.335477">
        <ele>412.814</ele>
        <time>2016-05-15T08:01:20Z</time>
      </trkpt>
      <trkpt lat="49.74145" lon="14.335678">
        <ele>413.067</ele>
        <time>2016-05-15T08:01:26Z</time>
      </trkpt>
      <trkpt lat="49.741537" lon="14.335798">
        <ele>413.06</ele>
        <time>2016-05-15T08:01:30Z</time>
      </trkpt>
      <trkpt lat="49.741687" lon="14.335991">
        <ele>413.563</ele>
        <time>2016-05-15T08:01:37Z</time>
      </trkpt>
      <trkpt lat="49.741798" lon="14.336336">
        <ele>414.626</ele>
        <time>2016-05-15T08:01:47Z</time>
      </trkpt>
      <trkpt lat="49.74191" lon="14.33671">
        <ele>414.881</ele>
        <time>2016-05-15T08:01:56Z</time>
      </trkpt>
      <trkpt lat="49.741984" lon="14.33686">
        <ele>415.556</ele>
        <time>2016-05-15T08:02:02Z</time>
      </trkpt>
      <trkpt lat="49.742149" lon="14.336943">
        <ele>416.11</ele>
        <time>2016-05-15T08:02:13Z</time>
      </trkpt>
      <trkpt lat="49.742299" lon="14.337022">
        <ele>417.072</ele>
        <time>2016-05-15T08:02:22Z</time>
      </trkpt>
      <trkpt lat="49.742457" lon="14.337177">
        <ele>418.878</ele>
        <time>2016-05-15T08:02:33Z</time>
      </trkpt>
      <trkpt lat="49.742629" lon="14.337271">
        <ele>421.04</ele>
        <time>2016-05-15T08:02:42Z</time>
      </trkpt>
      <trkpt lat="49.742814" lon="14.33741">
        <ele>423.492</ele>
        <time>2016-05-15T08:02:51Z</time>
      </trkpt>
      <trkpt lat="49.742928" lon="14.337445">
        <ele>425.694</ele>
        <time>2016-05-15T08:02:58Z</time>
      </trkpt>
      <trkpt lat="49.74312" lon="14.337509">
        <ele>428.399</ele>
        <time>2016-05-15T08:03:07Z</time>
      </trkpt>
      <trkpt lat="49.743256" lon="14.337651">
        <ele>430.07</ele>
        <time>2016-05-15T08:03:15Z</time>
      </trkpt>
      <trkpt lat="49.74338" lon="14.337853">
        <ele>432.792</ele>
        <time>2016-05-15T08:03:25Z</time>
      </trkpt>
      <trkpt lat="49.743469" lon="14.337967">
        <ele>434.455</ele>
        <time>2016-05-15T08:03:32Z</time>
      </trkpt>
      <trkpt lat="49.743626" lon="14.338011">
        <ele>436.863</ele>
        <time>2016-05-15T08:03:42Z</time>
      </trkpt>
      <trkpt lat="49.743841" lon="14.337804">
        <ele>440.688</ele>
        <time>2016-05-15T08:03:54Z</time>
      </trkpt>
      <trkpt lat="49.744064" lon="14.337896">
        <ele>442.085</ele>
        <time>2016-05-15T08:04:05Z</time>
      </trkpt>
      <trkpt lat="49.74422" lon="14.338096">
        <ele>442.697</ele>
        <time>2016-05-15T08:04:14Z</time>
      </trkpt>
      <trkpt lat="49.744345" lon="14.338299">
        <ele>443.225</ele>
        <time>2016-05-15T08:04:21Z</time>
      </trkpt>
      <trkpt lat="49.744469" lon="14.338517">
        <ele>443.732</ele>
        <time>2016-05-15T08:04:28Z</time>
      </trkpt>
      <trkpt lat="49.744555" lon="14.338732">
        <ele>444.463</ele>
        <time>2016-05-15T08:04:35Z</time>
      </trkpt>
      <trkpt lat="49.744645" lon="14.339036">
        <ele>446.027</ele>
        <time>2016-05-15T08:04:45Z</time>
      </trkpt>
      <trkpt lat="49.744724" lon="14.339252">
        <ele>447.052</ele>
        <time>2016-05-15T08:04:52Z</time>
      </trkpt>
      <trkpt lat="49.744788" lon="14.339392">
        <ele>447.786</ele>
        <time>2016-05-15T08:04:58Z</time>
      </trkpt>
      <trkpt lat="49.744874" lon="14.339548">
        <ele>448.715</ele>
        <time>2016-05-15T08:05:06Z</time>
      </trkpt>
      <trkpt lat="49.745002" lon="14.339826">
        <ele>449.668</ele>
        <time>2016-05-15T08:05:13Z</time>
      </trkpt>
      <trkpt lat="49.745103" lon="14.339934">
        <ele>450.888</ele>
        <time>2016-05-15T08:05:19Z</time>
      </trkpt>
      <trkpt lat="49.745249" lon="14.340192">
        <ele>453.058</ele>
        <time>2016-05-15T08:05:30Z</time>
      </trkpt>
      <trkpt lat="49.745325" lon="14.340321">
        <ele>454.149</ele>
        <time>2016-05-15T08:05:35Z</time>
      </trkpt>
      <trkpt lat="49.745449" lon="14.340627">
        <ele>457.62</ele>
        <time>2016-05-15T08:05:47Z</time>
      </trkpt>
      <trkpt lat="49.745626" lon="14.34091">
        <ele>460.775</ele>
        <time>2016-05-15T08:05:59Z</time>
      </trkpt>
      <trkpt lat="49.74581" lon="14.341281">
        <ele>462.856</ele>
        <time>2016-05-15T08:06:11Z</time>
      </trkpt>
      <trkpt lat="49.745915" lon="14.341515">
        <ele>464.512</ele>
        <time>2016-05-15T08:06:20Z</time>
      </trkpt>
      <trkpt lat="49.746015" lon="14.341723">
        <ele>466.087</ele>
        <time>2016-05-15T08:06:26Z</time>
      </trkpt>
      <trkpt lat="49.746104" lon="14.341945">
        <ele>467.667</ele>
        <time>2016-05-15T08:06:33Z</time>
      </trkpt>
      <trkpt lat="49.746172" lon="14.342305">
        <ele>469.764</ele>
        <time>2016-05-15T08:06:43Z</time>
      </trkpt>
      <trkpt lat="49.746264" lon="14.342676">
        <ele>470.896</ele>
        <time>2016-05-15T08:06:52Z</time>
      </trkpt>
      <trkpt lat="49.746325" lon="14.342977">
        <ele>471.878</ele>
        <time>2016-05-15T08:07:00Z</time>
      </trkpt>
      <trkpt lat="49.746358" lon="14.343156">
        <ele>472.606</ele>
        <time>2016-05-15T08:07:06Z</time>
      </trkpt>
      <trkpt lat="49.746426" lon="14.343443">
        <ele>473.361</ele>
        <time>2016-05-15T08:07:13Z</time>
      </trkpt>
      <trkpt lat="49.746499" lon="14.343661">
        <ele>473.884</ele>
        <time>2016-05-15T08:07:19Z</time>
      </trkpt>
      <trkpt lat="49.746598" lon="14.34394">
        <ele>473.831</ele>
        <time>2016-05-15T08:07:26Z</time>
      </trkpt>
      <trkpt lat="49.746685" lon="14.344254">
        <ele>473.65</ele>
        <time>2016-05-15T08:07:34Z</time>
      </trkpt>
      <trkpt lat="49.746767" lon="14.344595">
        <ele>474.157</ele>
        <time>2016-05-15T08:07:42Z</time>
      </trkpt>
      <trkpt lat="49.746824" lon="14.344927">
        <ele>474.548</ele>
        <time>2016-05-15T08:07:51Z</time>
      </trkpt>
      <trkpt lat="49.746745" lon="14.345187">
        <ele>475.661</ele>
        <time>2016-05-15T08:08:00Z</time>
      </trkpt>
      <trkpt lat="49.746631" lon="14.345328">
        <ele>477.224</ele>
        <time>2016-05-15T08:08:09Z</time>
      </trkpt>
      <trkpt lat="49.746408" lon="14.345462">
        <ele>480.066</ele>
        <time>2016-05-15T08:08:25Z</time>
      </trkpt>
      <trkpt lat="49.74622" lon="14.345573">
        <ele>481.887</ele>
        <time>2016-05-15T08:08:36Z</time>
      </trkpt>
      <trkpt lat="49.746124" lon="14.345881">
        <ele>484.883</ele>
        <time>2016-05-15T08:08:47Z</time>
      </trkpt>
      <trkpt lat="49.746179" lon="14.346292">
        <ele>487.088</ele>
        <time>2016-05-15T08:08:58Z</time>
      </trkpt>
      <trkpt lat="49.746277" lon="14.346565">
        <ele>488.28</ele>
        <time>2016-05-15T08:09:09Z</time>
      </trkpt>
      <trkpt lat="49.746273" lon="14.346861">
        <ele>489.209</ele>
        <time>2016-05-15T08:09:16Z</time>
      </trkpt>
      <trkpt lat="49.746269" lon="14.34721">
        <ele>489.22</ele>
        <time>2016-05-15T08:09:23Z</time>
      </trkpt>
      <trkpt lat="49.746309" lon="14.347463">
        <ele>489.049</ele>
        <time>2016-05-15T08:09:29Z</time>
      </trkpt>
      <trkpt lat="49.746347" lon="14.347716">
        <ele>488.781</ele>
        <time>2016-05-15T08:09:34Z</time>
      </trkpt>
      <trkpt lat="49.746366" lon="14.347836">
        <ele>488.723</ele>
        <time>2016-05-15T08:09:37Z</time>
      </trkpt>
      <trkpt lat="49.746445" lon="14.348166">
        <ele>488.821</ele>
        <time>2016-05-15T08:09:45Z</time>
      </trkpt>
      <trkpt lat="49.746521" lon="14.348545">
        <ele>488.523</ele>
        <time>2016-05-15T08:09:55Z</time>
      </trkpt>
      <trkpt lat="49.746649" lon="14.348854">
        <ele>488.024</ele>
        <time>2016-05-15T08:10:03Z</time>
      </trkpt>
      <trkpt lat="49.746751" lon="14.349041">
        <ele>487.656</ele>
        <time>2016-05-15T08:10:09Z</time>
      </trkpt>
      <trkpt lat="49.74689" lon="14.349384">
        <ele>486.677</ele>
        <time>2016-05-15T08:10:17Z</time>
      </trkpt>
      <trkpt lat="49.746993" lon="14.349716">
        <ele>486.535</ele>
        <time>2016-05-15T08:10:26Z</time>
      </trkpt>
      <trkpt lat="49.747085" lon="14.350007">
        <ele>486.612</ele>
        <time>2016-05-15T08:10:35Z</time>
      </trkpt>
      <trkpt lat="49.747229" lon="14.350296">
        <ele>485.805</ele>
        <time>2016-05-15T08:10:42Z</time>
      </trkpt>
      <trkpt lat="49.747304" lon="14.350568">
        <ele>485.18</ele>
        <time>2016-05-15T08:10:48Z</time>
      </trkpt>
      <trkpt lat="49.747405" lon="14.350809">
        <ele>484.521</ele>
        <time>2016-05-15T08:10:54Z</time>
      </trkpt>
      <trkpt lat="49.747553" lon="14.3511">
        <ele>483.478</ele>
        <time>2016-05-15T08:11:01Z</time>
      </trkpt>
      <trkpt lat="49.747539" lon="14.351423">
        <ele>483.361</ele>
        <time>2016-05-15T08:11:08Z</time>
      </trkpt>
      <trkpt lat="49.747437" lon="14.351625">
        <ele>482.965</ele>
        <time>2016-05-15T08:11:14Z</time>
      </trkpt>
      <trkpt lat="49.747302" lon="14.351904">
        <ele>482.377</ele>
        <time>2016-05-15T08:11:24Z</time>
      </trkpt>
      <trkpt lat="49.74717" lon="14.35219">
        <ele>482.15</ele>
        <time>2016-05-15T08:11:31Z</time>
      </trkpt>
      <trkpt lat="49.747055" lon="14.352423">
        <ele>481.278</ele>
        <time>2016-05-15T08:11:38Z</time>
      </trkpt>
      <trkpt lat="49.746925" lon="14.352719">
        <ele>480.218</ele>
        <time>2016-05-15T08:11:47Z</time>
      </trkpt>
      <trkpt lat="49.746776" lon="14.353062">
        <ele>479.95</ele>
        <time>2016-05-15T08:11:56Z</time>
      </trkpt>
      <trkpt lat="49.746782" lon="14.353399">
        <ele>479.664</ele>
        <time>2016-05-15T08:12:03Z</time>
      </trkpt>
      <trkpt lat="49.74682" lon="14.35364">
        <ele>478.688</ele>
        <time>2016-05-15T08:12:09Z</time>
      </trkpt>
      <trkpt lat="49.746867" lon="14.354049">
        <ele>477.343</ele>
        <time>2016-05-15T08:12:17Z</time>
      </trkpt>
      <trkpt lat="49.746876" lon="14.354292">
        <ele>476.575</ele>
        <time>2016-05-15T08:12:22Z</time>
      </trkpt>
      <trkpt lat="49.746863" lon="14.354588">
        <ele>475.57</ele>
        <time>2016-05-15T08:12:29Z</time>
      </trkpt>
      <trkpt lat="49.746854" lon="14.35485">
        <ele>474.526</ele>
        <time>2016-05-15T08:12:34Z</time>
      </trkpt>
      <trkpt lat="49.746908" lon="14.35507">
        <ele>472.702</ele>
        <time>2016-05-15T08:12:42Z</time>
      </trkpt>
      <trkpt lat="49.747123" lon="14.355189">
        <ele>470.744</ele>
        <time>2016-05-15T08:12:52Z</time>
      </trkpt>
      <trkpt lat="49.747351" lon="14.355325">
        <ele>468.716</ele>
        <time>2016-05-15T08:13:01Z</time>
      </trkpt>
      <trkpt lat="49.747495" lon="14.35541">
        <ele>467.417</ele>
        <time>2016-05-15T08:13:06Z</time>
      </trkpt>
      <trkpt lat="49.747781" lon="14.355627">
        <ele>465.054</ele>
        <time>2016-05-15T08:13:14Z</time>
      </trkpt>
      <trkpt lat="49.747948" lon="14.35586">
        <ele>463.848</ele>
        <time>2016-05-15T08:13:19Z</time>
      </trkpt>
      <trkpt lat="49.748125" lon="14.35605">
        <ele>461.419</ele>
        <time>2016-05-15T08:13:26Z</time>
      </trkpt>
      <trkpt lat="49.748332" lon="14.356164">
        <ele>458.975</ele>
        <time>2016-05-15T08:13:34Z</time>
      </trkpt>
      <trkpt lat="49.748557" lon="14.356224">
        <ele>456.218</ele>
        <time>2016-05-15T08:13:41Z</time>
      </trkpt>
      <trkpt lat="49.748762" lon="14.356384">
        <ele>453.729</ele>
        <time>2016-05-15T08:13:47Z</time>
      </trkpt>
      <trkpt lat="49.748983" lon="14.356602">
        <ele>449.859</ele>
        <time>2016-05-15T08:13:55Z</time>
      </trkpt>
      <trkpt lat="49.749195" lon="14.356873">
        <ele>445.508</ele>
        <time>2016-05-15T08:14:03Z</time>
      </trkpt>
      <trkpt lat="49.749363" lon="14.357064">
        <ele>441.158</ele>
        <time>2016-05-15T08:14:10Z</time>
      </trkpt>
      <trkpt lat="49.749553" lon="14.35706">
        <ele>438.137</ele>
        <time>2016-05-15T08:14:16Z</time>
      </trkpt>
      <trkpt lat="49.749784" lon="14.357007">
        <ele>434.841</ele>
        <time>2016-05-15T08:14:23Z</time>
      </trkpt>
      <trkpt lat="49.749953" lon="14.356976">
        <ele>432.716</ele>
        <time>2016-05-15T08:14:29Z</time>
      </trkpt>
      <trkpt lat="49.750181" lon="14.35715">
        <ele>430.463</ele>
        <time>2016-05-15T08:14:37Z</time>
      </trkpt>
      <trkpt lat="49.750376" lon="14.357331">
        <ele>428.782</ele>
        <time>2016-05-15T08:14:44Z</time>
      </trkpt>
      <trkpt lat="49.750559" lon="14.357474">
        <ele>427.209</ele>
        <time>2016-05-15T08:14:51Z</time>
      </trkpt>
      <trkpt lat="49.750658" lon="14.357566">
        <ele>426.136</ele>
        <time>2016-05-15T08:14:56Z</time>
      </trkpt>
      <trkpt lat="49.750798" lon="14.357734">
        <ele>425.132</ele>
        <time>2016-05-15T08:15:03Z</time>
      </trkpt>
      <trkpt lat="49.750933" lon="14.357886">
        <ele>423.986</ele>
        <time>2016-05-15T08:15:10Z</time>
      </trkpt>
      <trkpt lat="49.751059" lon="14.357983">
        <ele>423.184</ele>
        <time>2016-05-15T08:15:15Z</time>
      </trkpt>
      <trkpt lat="49.751246" lon="14.358114">
        <ele>422.03</ele>
        <time>2016-05-15T08:15:23Z</time>
      </trkpt>
      <trkpt lat="49.751401" lon="14.358227">
        <ele>421.514</ele>
        <time>2016-05-15T08:15:31Z</time>
      </trkpt>
      <trkpt lat="49.751515" lon="14.358362">
        <ele>422.174</ele>
        <time>2016-05-15T08:15:38Z</time>
      </trkpt>
      <trkpt lat="49.751664" lon="14.358534">
        <ele>423.828</ele>
        <time>2016-05-15T08:15:47Z</time>
      </trkpt>
      <trkpt lat="49.751774" lon="14.358745">
        <ele>425.353</ele>
        <time>2016-05-15T08:15:55Z</time>
      </trkpt>
      <trkpt lat="49.751887" lon="14.358914">
        <ele>426.498</ele>
        <time>2016-05-15T08:16:02Z</time>
      </trkpt>
      <trkpt lat="49.752069" lon="14.35921">
        <ele>427.419</ele>
        <time>2016-05-15T08:16:12Z</time>
      </trkpt>
      <trkpt lat="49.752238" lon="14.359511">
        <ele>428.619</ele>
        <time>2016-05-15T08:16:23Z</time>
      </trkpt>
      <trkpt lat="49.752371" lon="14.359753">
        <ele>430.008</ele>
        <time>2016-05-15T08:16:33Z</time>
      </trkpt>
      <trkpt lat="49.752519" lon="14.359989">
        <ele>431.262</ele>
        <time>2016-05-15T08:16:43Z</time>
      </trkpt>
      <trkpt lat="49.75267" lon="14.360215">
        <ele>432.943</ele>
        <time>2016-05-15T08:16:52Z</time>
      </trkpt>
      <trkpt lat="49.75276" lon="14.360351">
        <ele>434.019</ele>
        <time>2016-05-15T08:16:58Z</time>
      </trkpt>
      <trkpt lat="49.752971" lon="14.360617">
        <ele>435.931</ele>
        <time>2016-05-15T08:17:10Z</time>
      </trkpt>
      <trkpt lat="49.753028" lon="14.360955">
        <ele>437.988</ele>
        <time>2016-05-15T08:17:19Z</time>
      </trkpt>
      <trkpt lat="49.753037" lon="14.361161">
        <ele>438.938</ele>
        <time>2016-05-15T08:17:24Z</time>
      </trkpt>
      <trkpt lat="49.753042" lon="14.361511">
        <ele>440.472</ele>
        <time>2016-05-15T08:17:33Z</time>
      </trkpt>
      <trkpt lat="49.753029" lon="14.361753">
        <ele>440.842</ele>
        <time>2016-05-15T08:17:39Z</time>
      </trkpt>
      <trkpt lat="49.753027" lon="14.362094">
        <ele>441.46</ele>
        <time>2016-05-15T08:17:47Z</time>
      </trkpt>
      <trkpt lat="49.753045" lon="14.362401">
        <ele>442.361</ele>
        <time>2016-05-15T08:17:54Z</time>
      </trkpt>
      <trkpt lat="49.753039" lon="14.362844">
        <ele>443.892</ele>
        <time>2016-05-15T08:18:04Z</time>
      </trkpt>
      <trkpt lat="49.753018" lon="14.363074">
        <ele>444.69</ele>
        <time>2016-05-15T08:18:09Z</time>
      </trkpt>
      <trkpt lat="49.75301" lon="14.363225">
        <ele>444.881</ele>
        <time>2016-05-15T08:18:12Z</time>
      </trkpt>
      <trkpt lat="49.752987" lon="14.363519">
        <ele>445.163</ele>
        <time>2016-05-15T08:18:18Z</time>
      </trkpt>
      <trkpt lat="49.752977" lon="14.363645">
        <ele>445.378</ele>
        <time>2016-05-15T08:18:21Z</time>
      </trkpt>
      <trkpt lat="49.752962" lon="14.363771">
        <ele>445.469</ele>
        <time>2016-05-15T08:18:24Z</time>
      </trkpt>
      <trkpt lat="49.752941" lon="14.364034">
        <ele>445.487</ele>
        <time>2016-05-15T08:18:31Z</time>
      </trkpt>
      <trkpt lat="49.752919" lon="14.364248">
        <ele>445.673</ele>
        <time>2016-05-15T08:18:36Z</time>
      </trkpt>
      <trkpt lat="49.75291" lon="14.364589">
        <ele>445.777</ele>
        <time>2016-05-15T08:18:44Z</time>
      </trkpt>
      <trkpt lat="49.752916" lon="14.364754">
        <ele>445.838</ele>
        <time>2016-05-15T08:18:48Z</time>
      </trkpt>
      <trkpt lat="49.75292" lon="14.364948">
        <ele>446.15</ele>
        <time>2016-05-15T08:18:52Z</time>
      </trkpt>
      <trkpt lat="49.752949" lon="14.365312">
        <ele>446.687</ele>
        <time>2016-05-15T08:19:00Z</time>
      </trkpt>
      <trkpt lat="49.753009" lon="14.365677">
        <ele>447.016</ele>
        <time>2016-05-15T08:19:08Z</time>
      </trkpt>
      <trkpt lat="49.753046" lon="14.365843">
        <ele>447.227</ele>
        <time>2016-05-15T08:19:12Z</time>
      </trkpt>
      <trkpt lat="49.753099" lon="14.366213">
        <ele>446.974</ele>
        <time>2016-05-15T08:19:20Z</time>
      </trkpt>
      <trkpt lat="49.753164" lon="14.366614">
        <ele>447.205</ele>
        <time>2016-05-15T08:19:29Z</time>
      </trkpt>
      <trkpt lat="49.753223" lon="14.36691">
        <ele>447.057</ele>
        <time>2016-05-15T08:19:36Z</time>
      </trkpt>
      <trkpt lat="49.753283" lon="14.367102">
        <ele>446.877</ele>
        <time>2016-05-15T08:19:40Z</time>
      </trkpt>
      <trkpt lat="49.753402" lon="14.367434">
        <ele>446.533</ele>
        <time>2016-05-15T08:19:47Z</time>
      </trkpt>
      <trkpt lat="49.753455" lon="14.36757">
        <ele>446.388</ele>
        <time>2016-05-15T08:19:50Z</time>
      </trkpt>
      <trkpt lat="49.753511" lon="14.367706">
        <ele>444.928</ele>
        <time>2016-05-15T08:19:53Z</time>
      </trkpt>
      <trkpt lat="49.753573" lon="14.367842">
        <ele>444.694</ele>
        <time>2016-05-15T08:19:56Z</time>
      </trkpt>
      <trkpt lat="49.753699" lon="14.368113">
        <ele>444.097</ele>
        <time>2016-05-15T08:20:02Z</time>
      </trkpt>
      <trkpt lat="49.753764" lon="14.368249">
        <ele>441.692</ele>
        <time>2016-05-15T08:20:05Z</time>
      </trkpt>
      <trkpt lat="49.753829" lon="14.368384">
        <ele>441.119</ele>
        <time>2016-05-15T08:20:08Z</time>
      </trkpt>
      <trkpt lat="49.753964" lon="14.368677">
        <ele>439.857</ele>
        <time>2016-05-15T08:20:15Z</time>
      </trkpt>
      <trkpt lat="49.754095" lon="14.369021">
        <ele>437.939</ele>
        <time>2016-05-15T08:20:23Z</time>
      </trkpt>
      <trkpt lat="49.754233" lon="14.369322">
        <ele>435.929</ele>
        <time>2016-05-15T08:20:30Z</time>
      </trkpt>
      <trkpt lat="49.754373" lon="14.369641">
        <ele>433.895</ele>
        <time>2016-05-15T08:20:37Z</time>
      </trkpt>
      <trkpt lat="49.754428" lon="14.369909">
        <ele>432.328</ele>
        <time>2016-05-15T08:20:42Z</time>
      </trkpt>
      <trkpt lat="49.754471" lon="14.370281">
        <ele>429.553</ele>
        <time>2016-05-15T08:20:49Z</time>
      </trkpt>
      <trkpt lat="49.754503" lon="14.370604">
        <ele>427.478</ele>
        <time>2016-05-15T08:20:55Z</time>
      </trkpt>
      <trkpt lat="49.754514" lon="14.370879">
        <ele>425.477</ele>
        <time>2016-05-15T08:21:01Z</time>
      </trkpt>
      <trkpt lat="49.754558" lon="14.371236">
        <ele>422.808</ele>
        <time>2016-05-15T08:21:08Z</time>
      </trkpt>
      <trkpt lat="49.754633" lon="14.371458">
        <ele>420.717</ele>
        <time>2016-05-15T08:21:14Z</time>
      </trkpt>
      <trkpt lat="49.754758" lon="14.371619">
        <ele>418.54</ele>
        <time>2016-05-15T08:21:20Z</time>
      </trkpt>
      <trkpt lat="49.754845" lon="14.371882">
        <ele>416.718</ele>
        <time>2016-05-15T08:21:27Z</time>
      </trkpt>
      <trkpt lat="49.754824" lon="14.37212">
        <ele>415.251</ele>
        <time>2016-05-15T08:21:32Z</time>
      </trkpt>
      <trkpt lat="49.754798" lon="14.372345">
        <ele>413.778</ele>
        <time>2016-05-15T08:21:37Z</time>
      </trkpt>
      <trkpt lat="49.754699" lon="14.372677">
        <ele>412.172</ele>
        <time>2016-05-15T08:21:46Z</time>
      </trkpt>
      <trkpt lat="49.754614" lon="14.372951">
        <ele>410.896</ele>
        <time>2016-05-15T08:21:53Z</time>
      </trkpt>
      <trkpt lat="49.754545" lon="14.373153">
        <ele>410.224</ele>
        <time>2016-05-15T08:21:59Z</time>
      </trkpt>
      <trkpt lat="49.754471" lon="14.373314">
        <ele>409.528</ele>
        <time>2016-05-15T08:22:04Z</time>
      </trkpt>
      <trkpt lat="49.754389" lon="14.373541">
        <ele>408.877</ele>
        <time>2016-05-15T08:22:10Z</time>
      </trkpt>
      <trkpt lat="49.754301" lon="14.373851">
        <ele>408.359</ele>
        <time>2016-05-15T08:22:17Z</time>
      </trkpt>
      <trkpt lat="49.754205" lon="14.374157">
        <ele>408.444</ele>
        <time>2016-05-15T08:22:24Z</time>
      </trkpt>
      <trkpt lat="49.754112" lon="14.374442">
        <ele>408.151</ele>
        <time>2016-05-15T08:22:31Z</time>
      </trkpt>
      <trkpt lat="49.753988" lon="14.374805">
        <ele>407.839</ele>
        <time>2016-05-15T08:22:40Z</time>
      </trkpt>
      <trkpt lat="49.753877" lon="14.375201">
        <ele>406.988</ele>
        <time>2016-05-15T08:22:49Z</time>
      </trkpt>
      <trkpt lat="49.753826" lon="14.375462">
        <ele>406.159</ele>
        <time>2016-05-15T08:22:56Z</time>
      </trkpt>
      <trkpt lat="49.753805" lon="14.375853">
        <ele>405.124</ele>
        <time>2016-05-15T08:23:05Z</time>
      </trkpt>
      <trkpt lat="49.753778" lon="14.376169">
        <ele>405.053</ele>
        <time>2016-05-15T08:23:12Z</time>
      </trkpt>
      <trkpt lat="49.753753" lon="14.376445">
        <ele>405.027</ele>
        <time>2016-05-15T08:23:18Z</time>
      </trkpt>
      <trkpt lat="49.753727" lon="14.376699">
        <ele>405.141</ele>
        <time>2016-05-15T08:23:25Z</time>
      </trkpt>
      <trkpt lat="49.753708" lon="14.377142">
        <ele>405.377</ele>
        <time>2016-05-15T08:23:35Z</time>
      </trkpt>
      <trkpt lat="49.753786" lon="14.377422">
        <ele>405.366</ele>
        <time>2016-05-15T08:23:43Z</time>
      </trkpt>
      <trkpt lat="49.753823" lon="14.377645">
        <ele>405.353</ele>
        <time>2016-05-15T08:23:48Z</time>
      </trkpt>
      <trkpt lat="49.753875" lon="14.377806">
        <ele>405.231</ele>
        <time>2016-05-15T08:23:53Z</time>
      </trkpt>
      <trkpt lat="49.753957" lon="14.37815">
        <ele>405.363</ele>
        <time>2016-05-15T08:24:02Z</time>
      </trkpt>
      <trkpt lat="49.753997" lon="14.378332">
        <ele>405.3</ele>
        <time>2016-05-15T08:24:07Z</time>
      </trkpt>
      <trkpt lat="49.754161" lon="14.378539">
        <ele>405.891</ele>
        <time>2016-05-15T08:24:14Z</time>
      </trkpt>
      <trkpt lat="49.754275" lon="14.378714">
        <ele>405.903</ele>
        <time>2016-05-15T08:24:20Z</time>
      </trkpt>
      <trkpt lat="49.754333" lon="14.378808">
        <ele>405.91</ele>
        <time>2016-05-15T08:24:23Z</time>
      </trkpt>
      <trkpt lat="49.754392" lon="14.378885">
        <ele>406.039</ele>
        <time>2016-05-15T08:24:26Z</time>
      </trkpt>
      <trkpt lat="49.754557" lon="14.379071">
        <ele>406.179</ele>
        <time>2016-05-15T08:24:33Z</time>
      </trkpt>
      <trkpt lat="49.754712" lon="14.379313">
        <ele>406.476</ele>
        <time>2016-05-15T08:24:42Z</time>
      </trkpt>
      <trkpt lat="49.754866" lon="14.379588">
        <ele>407.809</ele>
        <time>2016-05-15T08:24:51Z</time>
      </trkpt>
      <trkpt lat="49.755012" lon="14.379888">
        <ele>409.393</ele>
        <time>2016-05-15T08:25:00Z</time>
      </trkpt>
      <trkpt lat="49.755132" lon="14.380105">
        <ele>411.078</ele>
        <time>2016-05-15T08:25:07Z</time>
      </trkpt>
      <trkpt lat="49.75529" lon="14.380497">
        <ele>412.741</ele>
        <time>2016-05-15T08:25:17Z</time>
      </trkpt>
      <trkpt lat="49.755365" lon="14.380733">
        <ele>413.415</ele>
        <time>2016-05-15T08:25:23Z</time>
      </trkpt>
      <trkpt lat="49.755468" lon="14.381052">
        <ele>414.52</ele>
        <time>2016-05-15T08:25:31Z</time>
      </trkpt>
      <trkpt lat="49.75556" lon="14.381451">
        <ele>415.461</ele>
        <time>2016-05-15T08:25:40Z</time>
      </trkpt>
      <trkpt lat="49.755621" lon="14.381754">
        <ele>415.674</ele>
        <time>2016-05-15T08:25:47Z</time>
      </trkpt>
      <trkpt lat="49.755714" lon="14.382053">
        <ele>416.126</ele>
        <time>2016-05-15T08:25:54Z</time>
      </trkpt>
      <trkpt lat="49.75578" lon="14.382299">
        <ele>416.584</ele>
        <time>2016-05-15T08:26:00Z</time>
      </trkpt>
      <trkpt lat="49.755832" lon="14.382545">
        <ele>416.624</ele>
        <time>2016-05-15T08:26:05Z</time>
      </trkpt>
      <trkpt lat="49.755867" lon="14.382758">
        <ele>416.851</ele>
        <time>2016-05-15T08:26:10Z</time>
      </trkpt>
      <trkpt lat="49.755837" lon="14.382994">
        <ele>417.248</ele>
        <time>2016-05-15T08:26:16Z</time>
      </trkpt>
      <trkpt lat="49.755941" lon="14.383413">
        <ele>417.351</ele>
        <time>2016-05-15T08:26:24Z</time>
      </trkpt>
      <trkpt lat="49.756031" lon="14.383777">
        <ele>417.306</ele>
        <time>2016-05-15T08:26:34Z</time>
      </trkpt>
      <trkpt lat="49.756131" lon="14.383994">
        <ele>417.216</ele>
        <time>2016-05-15T08:26:40Z</time>
      </trkpt>
      <trkpt lat="49.756239" lon="14.384288">
        <ele>417.463</ele>
        <time>2016-05-15T08:26:47Z</time>
      </trkpt>
      <trkpt lat="49.756387" lon="14.384697">
        <ele>418.207</ele>
        <time>2016-05-15T08:26:58Z</time>
      </trkpt>
      <trkpt lat="49.756556" lon="14.384981">
        <ele>418.85</ele>
        <time>2016-05-15T08:27:06Z</time>
      </trkpt>
      <trkpt lat="49.756721" lon="14.385224">
        <ele>419.116</ele>
        <time>2016-05-15T08:27:13Z</time>
      </trkpt>
      <trkpt lat="49.756911" lon="14.385427">
        <ele>419.262</ele>
        <time>2016-05-15T08:27:21Z</time>
      </trkpt>
      <trkpt lat="49.757056" lon="14.385595">
        <ele>419.247</ele>
        <time>2016-05-15T08:27:27Z</time>
      </trkpt>
      <trkpt lat="49.757211" lon="14.385893">
        <ele>419.145</ele>
        <time>2016-05-15T08:27:36Z</time>
      </trkpt>
      <trkpt lat="49.75736" lon="14.386103">
        <ele>418.666</ele>
        <time>2016-05-15T08:27:42Z</time>
      </trkpt>
      <trkpt lat="49.757433" lon="14.386222">
        <ele>418.316</ele>
        <time>2016-05-15T08:27:46Z</time>
      </trkpt>
      <trkpt lat="49.757616" lon="14.386469">
        <ele>417.696</ele>
        <time>2016-05-15T08:27:54Z</time>
      </trkpt>
      <trkpt lat="49.757808" lon="14.386622">
        <ele>417.705</ele>
        <time>2016-05-15T08:28:01Z</time>
      </trkpt>
      <trkpt lat="49.757936" lon="14.386792">
        <ele>417.606</ele>
        <time>2016-05-15T08:28:07Z</time>
      </trkpt>
      <trkpt lat="49.758107" lon="14.386948">
        <ele>417.503</ele>
        <time>2016-05-15T08:28:14Z</time>
      </trkpt>
      <trkpt lat="49.758334" lon="14.387169">
        <ele>417.619</ele>
        <time>2016-05-15T08:28:24Z</time>
      </trkpt>
      <trkpt lat="49.758448" lon="14.387374">
        <ele>417.819</ele>
        <time>2016-05-15T08:28:30Z</time>
      </trkpt>
      <trkpt lat="49.758523" lon="14.387586">
        <ele>417.985</ele>
        <time>2016-05-15T08:28:36Z</time>
      </trkpt>
      <trkpt lat="49.758626" lon="14.387823">
        <ele>418.062</ele>
        <time>2016-05-15T08:28:42Z</time>
      </trkpt>
      <trkpt lat="49.758756" lon="14.388016">
        <ele>418.24</ele>
        <time>2016-05-15T08:28:48Z</time>
      </trkpt>
      <trkpt lat="49.758931" lon="14.388109">
        <ele>418.601</ele>
        <time>2016-05-15T08:28:54Z</time>
      </trkpt>
      <trkpt lat="49.75912" lon="14.388232">
        <ele>418.691</ele>
        <time>2016-05-15T08:29:01Z</time>
      </trkpt>
      <trkpt lat="49.759289" lon="14.388604">
        <ele>418.669</ele>
        <time>2016-05-15T08:29:10Z</time>
      </trkpt>
      <trkpt lat="49.759337" lon="14.388862">
        <ele>418.725</ele>
        <time>2016-05-15T08:29:16Z</time>
      </trkpt>
      <trkpt lat="49.759405" lon="14.389217">
        <ele>419.242</ele>
        <time>2016-05-15T08:29:24Z</time>
      </trkpt>
      <trkpt lat="49.759485" lon="14.389481">
        <ele>419.675</ele>
        <time>2016-05-15T08:29:31Z</time>
      </trkpt>
      <trkpt lat="49.759553" lon="14.389717">
        <ele>420.232</ele>
        <time>2016-05-15T08:29:37Z</time>
      </trkpt>
      <trkpt lat="49.759646" lon="14.39004">
        <ele>421.1</ele>
        <time>2016-05-15T08:29:45Z</time>
      </trkpt>
      <trkpt lat="49.759687" lon="14.390273">
        <ele>421.652</ele>
        <time>2016-05-15T08:29:50Z</time>
      </trkpt>
      <trkpt lat="49.759711" lon="14.390391">
        <ele>422.027</ele>
        <time>2016-05-15T08:29:53Z</time>
      </trkpt>
      <trkpt lat="49.75981" lon="14.390719">
        <ele>423.643</ele>
        <time>2016-05-15T08:30:01Z</time>
      </trkpt>
      <trkpt lat="49.759897" lon="14.390957">
        <ele>424.418</ele>
        <time>2016-05-15T08:30:07Z</time>
      </trkpt>
      <trkpt lat="49.760004" lon="14.391284">
        <ele>425.231</ele>
        <time>2016-05-15T08:30:15Z</time>
      </trkpt>
      <trkpt lat="49.760047" lon="14.391424">
        <ele>425.602</ele>
        <time>2016-05-15T08:30:19Z</time>
      </trkpt>
      <trkpt lat="49.760158" lon="14.391729">
        <ele>425.969</ele>
        <time>2016-05-15T08:30:27Z</time>
      </trkpt>
      <trkpt lat="49.760211" lon="14.391911">
        <ele>426.233</ele>
        <time>2016-05-15T08:30:32Z</time>
      </trkpt>
      <trkpt lat="49.760279" lon="14.392094">
        <ele>426.826</ele>
        <time>2016-05-15T08:30:37Z</time>
      </trkpt>
      <trkpt lat="49.760404" lon="14.392399">
        <ele>427.644</ele>
        <time>2016-05-15T08:30:45Z</time>
      </trkpt>
      <trkpt lat="49.760554" lon="14.392702">
        <ele>427.702</ele>
        <time>2016-05-15T08:30:53Z</time>
      </trkpt>
      <trkpt lat="49.760694" lon="14.393033">
        <ele>428.742</ele>
        <time>2016-05-15T08:31:03Z</time>
      </trkpt>
      <trkpt lat="49.760795" lon="14.393219">
        <ele>429.028</ele>
        <time>2016-05-15T08:31:08Z</time>
      </trkpt>
      <trkpt lat="49.760866" lon="14.393503">
        <ele>429.762</ele>
        <time>2016-05-15T08:31:15Z</time>
      </trkpt>
      <trkpt lat="49.76091" lon="14.39376">
        <ele>430.334</ele>
        <time>2016-05-15T08:31:21Z</time>
      </trkpt>
      <trkpt lat="49.76097" lon="14.394047">
        <ele>430.958</ele>
        <time>2016-05-15T08:31:28Z</time>
      </trkpt>
      <trkpt lat="49.761016" lon="14.394281">
        <ele>431.135</ele>
        <time>2016-05-15T08:31:33Z</time>
      </trkpt>
      <trkpt lat="49.761119" lon="14.394549">
        <ele>431.758</ele>
        <time>2016-05-15T08:31:40Z</time>
      </trkpt>
      <trkpt lat="49.761191" lon="14.394693">
        <ele>431.95</ele>
        <time>2016-05-15T08:31:44Z</time>
      </trkpt>
      <trkpt lat="49.761341" lon="14.395024">
        <ele>432.272</ele>
        <time>2016-05-15T08:31:52Z</time>
      </trkpt>
      <trkpt lat="49.761409" lon="14.395252">
        <ele>432.654</ele>
        <time>2016-05-15T08:31:57Z</time>
      </trkpt>
      <trkpt lat="49.761496" lon="14.395465">
        <ele>432.772</ele>
        <time>2016-05-15T08:32:02Z</time>
      </trkpt>
      <trkpt lat="49.76159" lon="14.39576">
        <ele>432.932</ele>
        <time>2016-05-15T08:32:08Z</time>
      </trkpt>
      <trkpt lat="49.761708" lon="14.39602">
        <ele>433.063</ele>
        <time>2016-05-15T08:32:14Z</time>
      </trkpt>
      <trkpt lat="49.761838" lon="14.396309">
        <ele>433.276</ele>
        <time>2016-05-15T08:32:20Z</time>
      </trkpt>
      <trkpt lat="49.761967" lon="14.396635">
        <ele>433.141</ele>
        <time>2016-05-15T08:32:26Z</time>
      </trkpt>
      <trkpt lat="49.76202" lon="14.39689">
        <ele>432.476</ele>
        <time>2016-05-15T08:32:31Z</time>
      </trkpt>
      <trkpt lat="49.762032" lon="14.397047">
        <ele>432.259</ele>
        <time>2016-05-15T08:32:34Z</time>
      </trkpt>
      <trkpt lat="49.762027" lon="14.397314">
        <ele>431.932</ele>
        <time>2016-05-15T08:32:39Z</time>
      </trkpt>
      <trkpt lat="49.762027" lon="14.397703">
        <ele>431.378</ele>
        <time>2016-05-15T08:32:46Z</time>
      </trkpt>
      <trkpt lat="49.762017" lon="14.398026">
        <ele>430.608</ele>
        <time>2016-05-15T08:32:52Z</time>
      </trkpt>
      <trkpt lat="49.762037" lon="14.398376">
        <ele>429.829</ele>
        <time>2016-05-15T08:32:58Z</time>
      </trkpt>
      <trkpt lat="49.762046" lon="14.39868">
        <ele>429.342</ele>
        <time>2016-05-15T08:33:04Z</time>
      </trkpt>
      <trkpt lat="49.762014" lon="14.398993">
        <ele>428.876</ele>
        <time>2016-05-15T08:33:10Z</time>
      </trkpt>
      <trkpt lat="49.761945" lon="14.399448">
        <ele>428.016</ele>
        <time>2016-05-15T08:33:18Z</time>
      </trkpt>
      <trkpt lat="49.761864" lon="14.399771">
        <ele>427.469</ele>
        <time>2016-05-15T08:33:24Z</time>
      </trkpt>
      <trkpt lat="49.761795" lon="14.399992">
        <ele>426.744</ele>
        <time>2016-05-15T08:33:29Z</time>
      </trkpt>
      <trkpt lat="49.761702" lon="14.400274">
        <ele>426.029</ele>
        <time>2016-05-15T08:33:35Z</time>
      </trkpt>
      <trkpt lat="49.761549" lon="14.400487">
        <ele>425.532</ele>
        <time>2016-05-15T08:33:41Z</time>
      </trkpt>
      <trkpt lat="49.761404" lon="14.400629">
        <ele>423.867</ele>
        <time>2016-05-15T08:33:46Z</time>
      </trkpt>
      <trkpt lat="49.761204" lon="14.400871">
        <ele>422.211</ele>
        <time>2016-05-15T08:33:53Z</time>
      </trkpt>
      <trkpt lat="49.761079" lon="14.401205">
        <ele>420.657</ele>
        <time>2016-05-15T08:34:02Z</time>
      </trkpt>
      <trkpt lat="49.761098" lon="14.401622">
        <ele>418.842</ele>
        <time>2016-05-15T08:34:09Z</time>
      </trkpt>
      <trkpt lat="49.761178" lon="14.401874">
        <ele>414.005</ele>
        <time>2016-05-15T08:34:14Z</time>
      </trkpt>
      <trkpt lat="49.761258" lon="14.402165">
        <ele>413.211</ele>
        <time>2016-05-15T08:34:20Z</time>
      </trkpt>
      <trkpt lat="49.761268" lon="14.402476">
        <ele>412.91</ele>
        <time>2016-05-15T08:34:25Z</time>
      </trkpt>
      <trkpt lat="49.761209" lon="14.402822">
        <ele>412.723</ele>
        <time>2016-05-15T08:34:32Z</time>
      </trkpt>
      <trkpt lat="49.761179" lon="14.403078">
        <ele>412.8</ele>
        <time>2016-05-15T08:34:37Z</time>
      </trkpt>
      <trkpt lat="49.761119" lon="14.403336">
        <ele>412.362</ele>
        <time>2016-05-15T08:34:42Z</time>
      </trkpt>
      <trkpt lat="49.761098" lon="14.403633">
        <ele>411.602</ele>
        <time>2016-05-15T08:34:48Z</time>
      </trkpt>
      <trkpt lat="49.761061" lon="14.403935">
        <ele>410.984</ele>
        <time>2016-05-15T08:34:54Z</time>
      </trkpt>
      <trkpt lat="49.761069" lon="14.404388">
        <ele>410.721</ele>
        <time>2016-05-15T08:35:02Z</time>
      </trkpt>
      <trkpt lat="49.761164" lon="14.404895">
        <ele>409.368</ele>
        <time>2016-05-15T08:35:10Z</time>
      </trkpt>
      <trkpt lat="49.761234" lon="14.405249">
        <ele>407.935</ele>
        <time>2016-05-15T08:35:16Z</time>
      </trkpt>
      <trkpt lat="49.761303" lon="14.405634">
        <ele>404.932</ele>
        <time>2016-05-15T08:35:23Z</time>
      </trkpt>
      <trkpt lat="49.76138" lon="14.405946">
        <ele>401.298</ele>
        <time>2016-05-15T08:35:29Z</time>
      </trkpt>
      <trkpt lat="49.761437" lon="14.406307">
        <ele>399.255</ele>
        <time>2016-05-15T08:35:36Z</time>
      </trkpt>
      <trkpt lat="49.761481" lon="14.406466">
        <ele>398.678</ele>
        <time>2016-05-15T08:35:39Z</time>
      </trkpt>
      <trkpt lat="49.761538" lon="14.406708">
        <ele>398.034</ele>
        <time>2016-05-15T08:35:44Z</time>
      </trkpt>
      <trkpt lat="49.761678" lon="14.407111">
        <ele>396.926</ele>
        <time>2016-05-15T08:35:52Z</time>
      </trkpt>
      <trkpt lat="49.761786" lon="14.407389">
        <ele>396.095</ele>
        <time>2016-05-15T08:35:59Z</time>
      </trkpt>
      <trkpt lat="49.761941" lon="14.407638">
        <ele>395.25</ele>
        <time>2016-05-15T08:36:05Z</time>
      </trkpt>
      <trkpt lat="49.762077" lon="14.407838">
        <ele>394.266</ele>
        <time>2016-05-15T08:36:10Z</time>
      </trkpt>
      <trkpt lat="49.762246" lon="14.40806">
        <ele>393.325</ele>
        <time>2016-05-15T08:36:16Z</time>
      </trkpt>
      <trkpt lat="49.762444" lon="14.408276">
        <ele>392.711</ele>
        <time>2016-05-15T08:36:23Z</time>
      </trkpt>
      <trkpt lat="49.762683" lon="14.408605">
        <ele>391.219</ele>
        <time>2016-05-15T08:36:32Z</time>
      </trkpt>
      <trkpt lat="49.762773" lon="14.408868">
        <ele>390.439</ele>
        <time>2016-05-15T08:36:37Z</time>
      </trkpt>
      <trkpt lat="49.762838" lon="14.409111">
        <ele>389.401</ele>
        <time>2016-05-15T08:36:42Z</time>
      </trkpt>
      <trkpt lat="49.762903" lon="14.409487">
        <ele>387.91</ele>
        <time>2016-05-15T08:36:49Z</time>
      </trkpt>
      <trkpt lat="49.762947" lon="14.409786">
        <ele>386.574</ele>
        <time>2016-05-15T08:36:56Z</time>
      </trkpt>
      <trkpt lat="49.762957" lon="14.410051">
        <ele>385.627</ele>
        <time>2016-05-15T08:37:01Z</time>
      </trkpt>
      <trkpt lat="49.762994" lon="14.410415">
        <ele>384.586</ele>
        <time>2016-05-15T08:37:08Z</time>
      </trkpt>
      <trkpt lat="49.762982" lon="14.410838">
        <ele>382.891</ele>
        <time>2016-05-15T08:37:16Z</time>
      </trkpt>
      <trkpt lat="49.762846" lon="14.411152">
        <ele>381.856</ele>
        <time>2016-05-15T08:37:23Z</time>
      </trkpt>
      <trkpt lat="49.762732" lon="14.411294">
        <ele>380.814</ele>
        <time>2016-05-15T08:37:28Z</time>
      </trkpt>
      <trkpt lat="49.762494" lon="14.411542">
        <ele>379.527</ele>
        <time>2016-05-15T08:37:36Z</time>
      </trkpt>
      <trkpt lat="49.762303" lon="14.411704">
        <ele>376.896</ele>
        <time>2016-05-15T08:37:42Z</time>
      </trkpt>
      <trkpt lat="49.762218" lon="14.411793">
        <ele>376.543</ele>
        <time>2016-05-15T08:37:45Z</time>
      </trkpt>
      <trkpt lat="49.762018" lon="14.411978">
        <ele>375.829</ele>
        <time>2016-05-15T08:37:51Z</time>
      </trkpt>
      <trkpt lat="49.761825" lon="14.412151">
        <ele>374.901</ele>
        <time>2016-05-15T08:37:57Z</time>
      </trkpt>
      <trkpt lat="49.761672" lon="14.41228">
        <ele>373.745</ele>
        <time>2016-05-15T08:38:02Z</time>
      </trkpt>
      <trkpt lat="49.76148" lon="14.412441">
        <ele>372.681</ele>
        <time>2016-05-15T08:38:08Z</time>
      </trkpt>
      <trkpt lat="49.761184" lon="14.412576">
        <ele>371.719</ele>
        <time>2016-05-15T08:38:16Z</time>
      </trkpt>
      <trkpt lat="49.761021" lon="14.412622">
        <ele>368.428</ele>
        <time>2016-05-15T08:38:21Z</time>
      </trkpt>
      <trkpt lat="49.76081" lon="14.412692">
        <ele>366.052</ele>
        <time>2016-05-15T08:38:27Z</time>
      </trkpt>
      <trkpt lat="49.760693" lon="14.412722">
        <ele>365.294</ele>
        <time>2016-05-15T08:38:30Z</time>
      </trkpt>
      <trkpt lat="49.76048" lon="14.412761">
        <ele>364.601</ele>
        <time>2016-05-15T08:38:36Z</time>
      </trkpt>
      <trkpt lat="49.760279" lon="14.412718">
        <ele>364.348</ele>
        <time>2016-05-15T08:38:42Z</time>
      </trkpt>
      <trkpt lat="49.76006" lon="14.41257">
        <ele>363.275</ele>
        <time>2016-05-15T08:38:48Z</time>
      </trkpt>
      <trkpt lat="49.759893" lon="14.412475">
        <ele>362.604</ele>
        <time>2016-05-15T08:38:54Z</time>
      </trkpt>
      <trkpt lat="49.759728" lon="14.412504">
        <ele>362.019</ele>
        <time>2016-05-15T08:39:01Z</time>
      </trkpt>
      <trkpt lat="49.759509" lon="14.412847">
        <ele>359.668</ele>
        <time>2016-05-15T08:39:10Z</time>
      </trkpt>
      <trkpt lat="49.759493" lon="14.413051">
        <ele>359.032</ele>
        <time>2016-05-15T08:39:16Z</time>
      </trkpt>
      <trkpt lat="49.759537" lon="14.413522">
        <ele>357.786</ele>
        <time>2016-05-15T08:39:24Z</time>
      </trkpt>
      <trkpt lat="49.759552" lon="14.413671">
        <ele>357.116</ele>
        <time>2016-05-15T08:39:27Z</time>
      </trkpt>
      <trkpt lat="49.759567" lon="14.413847">
        <ele>356.46</ele>
        <time>2016-05-15T08:39:30Z</time>
      </trkpt>
      <trkpt lat="49.759585" lon="14.414029">
        <ele>355.981</ele>
        <time>2016-05-15T08:39:33Z</time>
      </trkpt>
      <trkpt lat="49.75962" lon="14.414377">
        <ele>354.584</ele>
        <time>2016-05-15T08:39:39Z</time>
      </trkpt>
      <trkpt lat="49.759657" lon="14.414729">
        <ele>353.266</ele>
        <time>2016-05-15T08:39:45Z</time>
      </trkpt>
      <trkpt lat="49.75968" lon="14.415117">
        <ele>348.337</ele>
        <time>2016-05-15T08:39:52Z</time>
      </trkpt>
      <trkpt lat="49.75969" lon="14.415458">
        <ele>347.89</ele>
        <time>2016-05-15T08:39:58Z</time>
      </trkpt>
      <trkpt lat="49.759674" lon="14.415811">
        <ele>347.306</ele>
        <time>2016-05-15T08:40:04Z</time>
      </trkpt>
      <trkpt lat="49.759646" lon="14.416068">
        <ele>347.1</ele>
        <time>2016-05-15T08:40:09Z</time>
      </trkpt>
      <trkpt lat="49.759597" lon="14.416368">
        <ele>346.13</ele>
        <time>2016-05-15T08:40:14Z</time>
      </trkpt>
      <trkpt lat="49.759499" lon="14.416657">
        <ele>341.257</ele>
        <time>2016-05-15T08:40:19Z</time>
      </trkpt>
      <trkpt lat="49.759433" lon="14.41699">
        <ele>339.826</ele>
        <time>2016-05-15T08:40:25Z</time>
      </trkpt>
      <trkpt lat="49.759378" lon="14.417293">
        <ele>340.516</ele>
        <time>2016-05-15T08:40:30Z</time>
      </trkpt>
      <trkpt lat="49.759277" lon="14.417705">
        <ele>338.384</ele>
        <time>2016-05-15T08:40:37Z</time>
      </trkpt>
      <trkpt lat="49.759235" lon="14.417852">
        <ele>336.771</ele>
        <time>2016-05-15T08:40:40Z</time>
      </trkpt>
      <trkpt lat="49.759122" lon="14.418201">
        <ele>335.613</ele>
        <time>2016-05-15T08:40:46Z</time>
      </trkpt>
      <trkpt lat="49.759026" lon="14.418501">
        <ele>335.333</ele>
        <time>2016-05-15T08:40:52Z</time>
      </trkpt>
      <trkpt lat="49.758932" lon="14.418798">
        <ele>334.903</ele>
        <time>2016-05-15T08:40:58Z</time>
      </trkpt>
      <trkpt lat="49.758843" lon="14.419109">
        <ele>334.453</ele>
        <time>2016-05-15T08:41:04Z</time>
      </trkpt>
      <trkpt lat="49.758733" lon="14.41948">
        <ele>331.517</ele>
        <time>2016-05-15T08:41:10Z</time>
      </trkpt>
      <trkpt lat="49.758654" lon="14.419819">
        <ele>331.406</ele>
        <time>2016-05-15T08:41:16Z</time>
      </trkpt>
      <trkpt lat="49.758535" lon="14.420168">
        <ele>330.24</ele>
        <time>2016-05-15T08:41:23Z</time>
      </trkpt>
      <trkpt lat="49.758491" lon="14.420347">
        <ele>330.079</ele>
        <time>2016-05-15T08:41:27Z</time>
      </trkpt>
      <trkpt lat="49.758386" lon="14.420704">
        <ele>329.779</ele>
        <time>2016-05-15T08:41:33Z</time>
      </trkpt>
      <trkpt lat="49.758347" lon="14.420845">
        <ele>329.647</ele>
        <time>2016-05-15T08:41:36Z</time>
      </trkpt>
      <trkpt lat="49.758299" lon="14.420998">
        <ele>329.586</ele>
        <time>2016-05-15T08:41:39Z</time>
      </trkpt>
      <trkpt lat="49.758256" lon="14.42115">
        <ele>329.522</ele>
        <time>2016-05-15T08:41:42Z</time>
      </trkpt>
      <trkpt lat="49.758211" lon="14.421306">
        <ele>329.299</ele>
        <time>2016-05-15T08:41:45Z</time>
      </trkpt>
      <trkpt lat="49.758091" lon="14.421702">
        <ele>329.18</ele>
        <time>2016-05-15T08:41:52Z</time>
      </trkpt>
      <trkpt lat="49.757982" lon="14.421984">
        <ele>328.961</ele>
        <time>2016-05-15T08:41:58Z</time>
      </trkpt>
      <trkpt lat="49.757872" lon="14.422433">
        <ele>325.863</ele>
        <time>2016-05-15T08:42:05Z</time>
      </trkpt>
      <trkpt lat="49.757805" lon="14.422638">
        <ele>323.584</ele>
        <time>2016-05-15T08:42:08Z</time>
      </trkpt>
      <trkpt lat="49.757698" lon="14.422944">
        <ele>322.06</ele>
        <time>2016-05-15T08:42:14Z</time>
      </trkpt>
      <trkpt lat="49.757691" lon="14.423127">
        <ele>321.345</ele>
        <time>2016-05-15T08:42:24Z</time>
      </trkpt>
      <trkpt lat="49.757777" lon="14.423241">
        <ele>321.7</ele>
        <time>2016-05-15T08:42:37Z</time>
      </trkpt>
      <trkpt lat="49.757872" lon="14.423303">
        <ele>320.685</ele>
        <time>2016-05-15T08:42:52Z</time>
      </trkpt>
      <trkpt lat="49.757965" lon="14.423362">
        <ele>320.939</ele>
        <time>2016-05-15T08:43:02Z</time>
      </trkpt>
      <trkpt lat="49.757965" lon="14.423362">
        <time>2016-05-15T08:43:05Z</time>
      </trkpt>
    </trkseg>
    <trkseg>
      <trkpt lat="49.757965" lon="14.423362">
        <time>2016-05-15T08:43:07Z</time>
      </trkpt>
    </trkseg>
  </trk>
</gpx>